<svg xmlns="http://www.w3.org/2000/svg" width="32" height="32" viewBox="0 0 32 32">
  <g id="Group_129" data-name="Group 129" transform="translate(-9227 -7658)">
    <g id="Group_126" data-name="Group 126" transform="translate(8941 4382)">
      <path id="Path_221" data-name="Path 221" d="M354,7a2.991,2.991,0,0,1,3-3H383a2.991,2.991,0,0,1,3,3V33a2.991,2.991,0,0,1-3,3H357a2.991,2.991,0,0,1-3-3Zm6.707,14.711,4.934,4.934h0a2,2,0,0,0,2.771.055l10.823-9.991h0a1,1,0,0,0,.057-1.413l-.028-.029-.59-.59h0a1,1,0,0,0-1.38-.033l-9.941,9.038h0a.5.5,0,0,1-.69-.016l-3.956-3.956h0a1,1,0,0,0-1.414,0l-.586.586h0a1,1,0,0,0,0,1.414Z" transform="translate(-68 3272)" fill="#497cd5" fill-rule="evenodd"/>
    </g>
  </g>
</svg>
