<svg xmlns="http://www.w3.org/2000/svg" width="66.77" height="66.019" viewBox="0 0 66.77 66.019">
  <g id="Home_Page_icon" data-name="Home Page icon" transform="translate(465.885 -3750.784)">
    <g id="Group_141" data-name="Group 141" transform="translate(-468.01 3748.377)">
      <path id="Path_264" data-name="Path 264" d="M67.52,34.056a6.449,6.449,0,1,0-12.855,0,6.707,6.707,0,0,0-6.421-6.971,6.707,6.707,0,0,0-6.421,6.971A6.715,6.715,0,0,0,35.4,27.085a6.707,6.707,0,0,0-6.421,6.971,6.717,6.717,0,0,0-6.434-6.971,6.715,6.715,0,0,0-6.421,6.971,6.707,6.707,0,0,0-6.421-6.971A6.513,6.513,0,0,0,3.5,32.317C4.448,16.4,18.4,3.782,35.483,3.782,53.17,3.782,67.52,17.332,67.52,34.056Z" transform="translate(0 0)" fill="none" stroke="#ff5757" stroke-linecap="round" stroke-linejoin="round" stroke-miterlimit="10" stroke-width="2.75"/>
      <path id="Path_265" data-name="Path 265" d="M29.6,21.254V56.867a4.352,4.352,0,0,1-4.352,4.352h0a4.352,4.352,0,0,1-4.352-4.352V53.421" transform="translate(5.805 5.831)" fill="none" stroke="#ff5757" stroke-linecap="round" stroke-linejoin="round" stroke-miterlimit="10" stroke-width="2.75"/>
    </g>
  </g>
</svg>
