<svg xmlns="http://www.w3.org/2000/svg" width="28.8" height="18.263" viewBox="0 0 28.8 18.263">
  <g id="Mail_id" data-name="Mail id" transform="translate(-423.077 -3475)">
    <g id="Group_30" data-name="Group 30" transform="translate(423.077 3475)">
      <path id="Path_36" data-name="Path 36" d="M425.184,3475a2.124,2.124,0,0,0-.769.143l12.348,10.471a1.07,1.07,0,0,0,1.449,0l12.325-10.471a2.117,2.117,0,0,0-.768-.143Zm-2.085,1.8a2.158,2.158,0,0,0-.022.308v14.049a2.124,2.124,0,0,0,.164.834l8.572-7.814L423.1,3476.8Zm28.756,0-8.693,7.365,8.55,7.826a2.123,2.123,0,0,0,.164-.834v-14.049a2.158,2.158,0,0,0-.022-.308Zm-10.306,8.737-1.975,1.68a3.236,3.236,0,0,1-4.171,0l-1.965-1.668-8.451,7.705c.065.005.132.01.2.01H449.77c.069,0,.141,0,.208-.01l-8.429-7.717Z" transform="translate(-423.077 -3475)" fill="#3d73d3"/>
    </g>
  </g>
</svg>
