<svg xmlns="http://www.w3.org/2000/svg" width="71" height="71" viewBox="0 0 71 71">
  <g id="Number_2" data-name="Number 2" transform="translate(-760 -1202)">
    <circle id="Ellipse_696" data-name="Ellipse 696" cx="35.5" cy="35.5" r="35.5" transform="translate(760 1202)" fill="#3d73d3"/>
    <text id="_2" data-name="2" transform="translate(786 1250)" fill="#fff" font-size="35" font-family="Poppins-SemiBold, Poppins" font-weight="600"><tspan x="0" y="0">2</tspan></text>
  </g>
</svg>
